//
// filename:  bool.go
// author:    Thomas Lombard
// copyright: Thomas Lombard
// license:   MIT
// status:    published
//
module gitlab.com/thebedroom/might

go 1.19

require (
	github.com/go-co-op/gocron v1.23.0
	github.com/go-playground/validator/v10 v10.11.0
	github.com/google/uuid v1.3.0
	github.com/labstack/echo/v4 v4.2.1
	github.com/liip/sheriff v0.11.1
	github.com/sirupsen/logrus v1.9.0
	golang.org/x/crypto v0.6.0
	gopkg.in/yaml.v3 v3.0.1
	gorm.io/gorm v1.23.8
)

require (
	github.com/dgrijalva/jwt-go v3.2.0+incompatible // indirect
	github.com/go-playground/locales v0.14.0 // indirect
	github.com/go-playground/universal-translator v0.18.0 // indirect
	github.com/hashicorp/go-version v0.0.0-20161031182605-e96d38404026 // indirect
	github.com/jinzhu/inflection v1.0.0 // indirect
	github.com/jinzhu/now v1.1.4 // indirect
	github.com/labstack/gommon v0.3.0 // indirect
	github.com/leodido/go-urn v1.2.1 // indirect
	github.com/mattn/go-colorable v0.1.7 // indirect
	github.com/mattn/go-isatty v0.0.12 // indirect
	github.com/robfig/cron/v3 v3.0.1 // indirect
	github.com/valyala/bytebufferpool v1.0.0 // indirect
	github.com/valyala/fasttemplate v1.2.1 // indirect
	golang.org/x/net v0.7.0 // indirect
	golang.org/x/sys v0.5.0 // indirect
	golang.org/x/text v0.7.0 // indirect
	golang.org/x/time v0.0.0-20201208040808-7e3f01d25324 // indirect
)
